cinza/1310121211vacas.bmp 1 0 0 64 59
cinza/5.bmp 1 0 0 64 42
cinza/agriculture-1853339_960_720.bmp 1 0 0 53 64
cinza/animal-1004449_960_720.bmp 1 0 0 41 64
cinza/animal-1868883_960_720.bmp 1 0 0 64 51
cinza/animal-349375_960_720.bmp 1 0 0 64 46
cinza/animals-653451_960_720.bmp 1 0 0 35 64
cinza/beef-2438465_960_720.bmp 1 0 0 42 64
cinza/brown-calves-951762b_960_720.bmp 1 0 0 64 42
cinza/brown-calves-951762_960_720.bmp 1 0 0 64 47
cinza/bull-1805365_960_720.bmp 1 0 0 61 64
cinza/bull-2438032_960_720.bmp 1 0 0 38 64
cinza/calf-433000_960_720.bmp 1 0 0 48 64
cinza/cantabria-2212796_960_720.bmp 1 0 0 64 53
cinza/cattle-2504679_960_720.bmp 1 0 0 64 42
cinza/cattle-2504680adafee_960_720.bmp 1 0 0 64 49
cinza/cattle-2504680mkja_960_720.bmp 1 0 0 64 44
cinza/cattle-2504680_960_720.bmp 1 0 0 64 48
cinza/cattle-2554579majieaea_960_720.bmp 1 0 0 57 64
cinza/cattle-2554579_960_720.bmp 1 0 0 50 64
cinza/cattle-2594553eamaojqeqq_960_720.bmp 1 0 0 64 43
cinza/cattle-2594553jkjkjkjea_960_720.bmp 1 0 0 64 39
cinza/cattle-2594553_960_720.bmp 1 0 0 64 43
cinza/cow-1028432_960_720.bmp 1 0 0 46 64
cinza/cow-1149204_960_720.bmp 1 0 0 64 40
cinza/cow-1246855_960_720.bmp 1 0 0 60 64
cinza/cow-1256183_960_720.bmp 1 0 0 50 64
cinza/cow-1302310_960_720.bmp 1 0 0 64 46
cinza/cow-1389453_960_720.bmp 1 0 0 36 64
cinza/cow-1415553234doijla_960_720.bmp 1 0 0 64 49
cinza/cow-1415553_960_720.bmp 1 0 0 64 33
cinza/cow-1487820_960_720.bmp 1 0 0 56 64
cinza/cow-1487821_960_720.bmp 1 0 0 52 64
cinza/cow-1495509_960_720.bmp 1 0 0 64 36
cinza/cow-1560686_960_720.bmp 1 0 0 64 43
cinza/cow-1579357_960_720.bmp 1 0 0 33 64
cinza/cow-1612905_960_720.bmp 1 0 0 64 44
cinza/cow-1619480_960_720.bmp 1 0 0 64 60
cinza/cow-1629291_960_720.bmp 1 0 0 64 44
cinza/cow-1637509_960_720.bmp 1 0 0 64 43
cinza/cow-1644166_960_720.bmp 1 0 0 64 43
cinza/cow-1681253_960_720.bmp 1 0 0 64 48
cinza/cow-1721645_960_720.bmp 1 0 0 52 64
cinza/cow-1763155134qer_960_720.bmp 1 0 0 64 46
cinza/cow-1763155_960_720.bmp 1 0 0 64 52
cinza/cow-1805362_960_720.bmp 1 0 0 45 64
cinza/cow-1869612_960_720.bmp 1 0 0 39 64
cinza/cow-2132526_960_720.bmp 1 0 0 64 44
cinza/cow-2207842_960_720.bmp 1 0 0 64 57
cinza/cow-2260306_960_720.bmp 1 0 0 61 64
cinza/cow-2273550_960_720.bmp 1 0 0 44 64
cinza/cow-2281574_960_720.bmp 1 0 0 64 57
cinza/cow-2338994_960_720.bmp 1 0 0 44 64
cinza/cow-2368666_960_720.bmp 1 0 0 64 32
cinza/cow-2394010134adfzxc_960_720.bmp 1 0 0 33 64
cinza/cow-2394010_960_720.bmp 1 0 0 35 64
cinza/cow-2403464_960_720.bmp 1 0 0 62 64
cinza/cow-2474493_960_720.bmp 1 0 0 64 42
cinza/cow-2476394_960_720.bmp 1 0 0 64 50
cinza/cow-2494825_960_720.bmp 1 0 0 53 64
cinza/cow-2510607_960_720.bmp 1 0 0 64 48
cinza/cow-2532955_960_720.bmp 1 0 0 64 53
cinza/cow-2540128_960_720.bmp 1 0 0 64 48
cinza/cow-2578458_960_720.bmp 1 0 0 64 49
cinza/cow-2613474_960_720.bmp 1 0 0 64 48
cinza/cow-2655933_960_720.bmp 1 0 0 64 64
cinza/cow-2674362_960_720.bmp 1 0 0 64 44
cinza/cow-2712296_960_720.bmp 1 0 0 64 47
cinza/cow-2717648_960_720.bmp 1 0 0 64 56
cinza/cow-2736069908uhbserdf_960_720.bmp 1 0 0 64 52
cinza/cow-2736069_960_720.bmp 1 0 0 60 64
cinza/cow-54280534qedaedv_960_720.bmp 1 0 0 31 64
cinza/cow-542805_960_720.bmp 1 0 0 64 53
cinza/cow-691795_960_720.bmp 1 0 0 64 45
cinza/cow-768644_960_720.bmp 1 0 0 54 64
cinza/cow-842564_960_720.bmp 1 0 0 64 39
cinza/cow-842572_960_720.bmp 1 0 0 64 55
cinza/cow-859461_960_720.bmp 1 0 0 64 36
cinza/cow-930832eadaeraqea2313_960_720.bmp 1 0 0 39 64
cinza/cow-930832_960_720.bmp 1 0 0 39 64
cinza/cow-9444551q34davade_960_720.bmp 1 0 0 64 62
cinza/cow-944455_960_720.bmp 1 0 0 64 41
cinza/cow-950422_960_720.bmp 1 0 0 64 44
cinza/cow-95219913njkdqjioeanedqq134_960_720.bmp 1 0 0 34 64
cinza/cow-952199cnikiukjk1234_960_720.bmp 1 0 0 34 64
cinza/cow-952199eiamq33ioqu4qd_960_720.bmp 1 0 0 51 64
cinza/cow-953729_960_720.bmp 1 0 0 55 64
cinza/cow-980255_960_720.bmp 1 0 0 64 43
cinza/cow-982324eoimnq345_960_720.bmp 1 0 0 64 41
cinza/cow-982324_960_720.bmp 1 0 0 64 57
cinza/cow-982436009834_960_720.bmp 1 0 0 45 64
cinza/cow-982436_960_720.bmp 1 0 0 30 64
cinza/cow-991237248165748_960_720.bmp 1 0 0 64 58
cinza/cow-991237kjmmopi123_960_720.bmp 1 0 0 64 61
cinza/cow-991237miojiop1464_960_720.bmp 1 0 0 52 64
cinza/cow-991237_960_720.bmp 1 0 0 49 64
cinza/cows-1627685_960_720.bmp 1 0 0 37 64
cinza/cows-2463082_960_720.bmp 1 0 0 64 50
cinza/cows-2548270_960_720.bmp 1 0 0 64 46
cinza/cows-26710161q34zcvhjklbnm_960_720.bmp 1 0 0 64 38
cinza/cows-415070poljmkdfb_960_720.bmp 1 0 0 64 50
cinza/cows-415070_960_720.bmp 1 0 0 64 62
cinza/cows-420536_960_720.bmp 1 0 0 37 64
cinza/cows-636357_960_720.bmp 1 0 0 64 51
cinza/cows-801045_960_720.bmp 1 0 0 42 64
cinza/cows-982246kjanmnadrepoij32_960_720.bmp 1 0 0 50 64
cinza/cows-982246_960_720.bmp 1 0 0 64 50
cinza/cows-982280_960_720.bmp 1 0 0 64 43
cinza/cows-982295_960_720.bmp 1 0 0 64 44
cinza/cows-982323_960_720.bmp 1 0 0 48 64
cinza/extremadura-spain-26130941212212121_960_720.bmp 1 0 0 62 64
cinza/extremadura-spain-2613094_960_720.bmp 1 0 0 64 41
cinza/farm-2534262_960_720.bmp 1 0 0 64 52
cinza/lake-1557305_960_720.bmp 1 0 0 64 50
cinza/landscape-2529895_960_720.bmp 1 0 0 64 46
cinza/lubon-wielki-2699918_960_720.bmp 1 0 0 64 50
cinza/lying-cow-1982556_960_720.bmp 1 0 0 63 64
cinza/manzanares-spain-2598444_960_720.bmp 1 0 0 64 38
cinza/manzanares-spain-2601396_960_720.bmp 1 0 0 64 52
cinza/meadow-1728906_960_720.bmp 1 0 0 50 64
cinza/meadow-1728908_960_720.bmp 1 0 0 64 52
cinza/meadow-1728909_960_720.bmp 1 0 0 64 40
cinza/meadow-1728911954687_960_720.bmp 1 0 0 38 64
cinza/meadow-1728911_960_720.bmp 1 0 0 64 42
cinza/mountains-1697176_960_720.bmp 1 0 0 64 42
cinza/mountains-2471774_960_720.bmp 1 0 0 64 33
cinza/n01887787154788709564f_13369.bmp 1 0 0 39 64
cinza/n0188778716534534q51_13936.bmp 1 0 0 64 52
cinza/n0188778778965812347_341.bmp 1 0 0 64 45
cinza/n0188778790909_6143.bmp 1 0 0 64 24
cinza/n01887787aaeave_2559.bmp 1 0 0 64 50
cinza/n01887787aafe31212_9520.bmp 1 0 0 64 31
cinza/n01887787afaefaead_3522.bmp 1 0 0 38 64
cinza/n01887787aqwerafeafa_1988.bmp 1 0 0 64 46
cinza/n01887787IMJK_540.bmp 1 0 0 58 64
cinza/n01887787kjkjaea_4914.bmp 1 0 0 64 42
cinza/n01887787kjko9899_7521.bmp 1 0 0 64 40
cinza/n01887787opkkopeiamkae1641_531.bmp 1 0 0 64 43
cinza/n01887787qe34q34q_9899.bmp 1 0 0 64 56
cinza/n01887787qefqa1231541_11990.bmp 1 0 0 64 39
cinza/n01887787_1.bmp 1 0 0 36 64
cinza/n01887787_100.bmp 1 0 0 64 40
cinza/n01887787_10469.bmp 1 0 0 64 58
cinza/n01887787_10513.bmp 1 0 0 64 41
cinza/n01887787_11178.bmp 1 0 0 29 64
cinza/n01887787_11389.bmp 1 0 0 64 55
cinza/n01887787_11612.bmp 1 0 0 64 34
cinza/n01887787_11990.bmp 1 0 0 64 51
cinza/n01887787_12008.bmp 1 0 0 33 64
cinza/n01887787_121.bmp 1 0 0 64 45
cinza/n01887787_12152.bmp 1 0 0 39 64
cinza/n01887787_12183.bmp 1 0 0 64 37
cinza/n01887787_12237.bmp 1 0 0 54 64
cinza/n01887787_12915.bmp 1 0 0 27 64
cinza/n01887787_12946.bmp 1 0 0 44 64
cinza/n01887787_130.bmp 1 0 0 64 41
cinza/n01887787_13148.bmp 1 0 0 64 53
cinza/n01887787_13369.bmp 1 0 0 64 54
cinza/n01887787_13383.bmp 1 0 0 64 43
cinza/n01887787_13701.bmp 1 0 0 64 44
cinza/n01887787_1375.bmp 1 0 0 64 34
cinza/n01887787_13877.bmp 1 0 0 29 64
cinza/n01887787_13936.bmp 1 0 0 64 47
cinza/n01887787_14107.bmp 1 0 0 64 42
cinza/n01887787_14261.bmp 1 0 0 64 39
cinza/n01887787_14473.bmp 1 0 0 64 49
cinza/n01887787_1454.bmp 1 0 0 64 44
cinza/n01887787_14548.bmp 1 0 0 43 64
cinza/n01887787_1489.bmp 1 0 0 64 58
cinza/n01887787_1548.bmp 1 0 0 64 30
cinza/n01887787_1654.bmp 1 0 0 64 52
cinza/n01887787_1726.bmp 1 0 0 53 64
cinza/n01887787_17333.bmp 1 0 0 64 50
cinza/n01887787_17453.bmp 1 0 0 64 39
cinza/n01887787_17537.bmp 1 0 0 64 46
cinza/n01887787_1756.bmp 1 0 0 46 64
cinza/n01887787_17680.bmp 1 0 0 64 35
cinza/n01887787_17747.bmp 1 0 0 64 52
cinza/n01887787_17771.bmp 1 0 0 64 44
cinza/n01887787_18038.bmp 1 0 0 64 40
cinza/n01887787_18047.bmp 1 0 0 64 50
cinza/n01887787_18500.bmp 1 0 0 64 48
cinza/n01887787_18566.bmp 1 0 0 64 31
cinza/n01887787_18979.bmp 1 0 0 64 49
cinza/n01887787_19010.bmp 1 0 0 64 39
cinza/n01887787_1931.bmp 1 0 0 64 53
cinza/n01887787_1988.bmp 1 0 0 64 36
cinza/n01887787_1990.bmp 1 0 0 40 64
cinza/n01887787_2058.bmp 1 0 0 64 50
cinza/n01887787_2093.bmp 1 0 0 64 44
cinza/n01887787_2099.bmp 1 0 0 64 47
cinza/n01887787_213.bmp 1 0 0 47 64
cinza/n01887787_216.bmp 1 0 0 41 64
cinza/n01887787_2199.bmp 1 0 0 64 63
cinza/n01887787_227.bmp 1 0 0 64 40
cinza/n01887787_230.bmp 1 0 0 64 44
cinza/n01887787_2431.bmp 1 0 0 64 44
cinza/n01887787_2435.bmp 1 0 0 53 64
cinza/n01887787_248.bmp 1 0 0 64 42
cinza/n01887787_2480.bmp 1 0 0 64 40
cinza/n01887787_254.bmp 1 0 0 60 64
cinza/n01887787_2559.bmp 1 0 0 64 45
cinza/n01887787_2637.bmp 1 0 0 48 64
cinza/n01887787_2778.bmp 1 0 0 50 64
cinza/n01887787_2788.bmp 1 0 0 44 64
cinza/n01887787_280.bmp 1 0 0 64 42
cinza/n01887787_282.bmp 1 0 0 61 64
cinza/n01887787_3127.bmp 1 0 0 64 53
cinza/n01887787_3153.bmp 1 0 0 42 64
cinza/n01887787_316.bmp 1 0 0 64 49
cinza/n01887787_339.bmp 1 0 0 64 49
cinza/n01887787_341.bmp 1 0 0 49 64
cinza/n01887787_3506.bmp 1 0 0 64 38
cinza/n01887787_3522.bmp 1 0 0 33 64
cinza/n01887787_3601.bmp 1 0 0 53 64
cinza/n01887787_363.bmp 1 0 0 64 44
cinza/n01887787_3740.bmp 1 0 0 64 35
cinza/n01887787_3828.bmp 1 0 0 64 38
cinza/n01887787_3980.bmp 1 0 0 44 64
cinza/n01887787_4236.bmp 1 0 0 41 64
cinza/n01887787_4296.bmp 1 0 0 64 40
cinza/n01887787_4349.bmp 1 0 0 64 59
cinza/n01887787_438.bmp 1 0 0 64 48
cinza/n01887787_443.bmp 1 0 0 36 64
cinza/n01887787_4507.bmp 1 0 0 64 42
cinza/n01887787_4541.bmp 1 0 0 46 64
cinza/n01887787_4543.bmp 1 0 0 64 47
cinza/n01887787_4559.bmp 1 0 0 38 64
cinza/n01887787_4593.bmp 1 0 0 56 64
cinza/n01887787_4606.bmp 1 0 0 44 64
cinza/n01887787_4808.bmp 1 0 0 39 64
cinza/n01887787_4885.bmp 1 0 0 64 36
cinza/n01887787_4914.bmp 1 0 0 64 34
cinza/n01887787_5253.bmp 1 0 0 64 59
cinza/n01887787_529.bmp 1 0 0 56 64
cinza/n01887787_531.bmp 1 0 0 64 30
cinza/n01887787_5333.bmp 1 0 0 64 42
cinza/n01887787_5390.bmp 1 0 0 36 64
cinza/n01887787_540.bmp 1 0 0 50 64
cinza/n01887787_5458.bmp 1 0 0 64 45
cinza/n01887787_5589.bmp 1 0 0 64 40
cinza/n01887787_5597.bmp 1 0 0 64 42
cinza/n01887787_5628.bmp 1 0 0 64 39
cinza/n01887787_5720.bmp 1 0 0 51 64
cinza/n01887787_5825.bmp 1 0 0 60 64
cinza/n01887787_5846.bmp 1 0 0 64 33
cinza/n01887787_5847.bmp 1 0 0 58 64
cinza/n01887787_5907.bmp 1 0 0 64 45
cinza/n01887787_6099.bmp 1 0 0 38 64
cinza/n01887787_6143.bmp 1 0 0 64 43
cinza/n01887787_619.bmp 1 0 0 39 64
cinza/n01887787_6259.bmp 1 0 0 64 55
cinza/n01887787_632.bmp 1 0 0 64 39
cinza/n01887787_6509.bmp 1 0 0 64 53
cinza/n01887787_6517.bmp 1 0 0 56 64
cinza/n01887787_658.bmp 1 0 0 36 64
cinza/n01887787_6870.bmp 1 0 0 64 54
cinza/n01887787_6878.bmp 1 0 0 39 64
cinza/n01887787_6955.bmp 1 0 0 64 41
cinza/n01887787_6956.bmp 1 0 0 52 64
cinza/n01887787_6986.bmp 1 0 0 64 44
cinza/n01887787_6995.bmp 1 0 0 64 50
cinza/n01887787_706.bmp 1 0 0 42 64
cinza/n01887787_781.bmp 1 0 0 48 64
cinza/n01887787_793.bmp 1 0 0 64 54
cinza/n01887787_7974.bmp 1 0 0 64 43
cinza/n01887787_8216.bmp 1 0 0 52 64
cinza/n01887787_8265.bmp 1 0 0 64 41
cinza/n01887787_8431.bmp 1 0 0 53 64
cinza/n01887787_8525.bmp 1 0 0 39 64
cinza/n01887787_873.bmp 1 0 0 57 64
cinza/n01887787_923.bmp 1 0 0 46 64
cinza/n01887787_945.bmp 1 0 0 31 64
cinza/n01887787_9512.bmp 1 0 0 53 64
cinza/n01887787_9520.bmp 1 0 0 64 39
cinza/n01887787_981.bmp 1 0 0 64 39
cinza/n01887787_9899.bmp 1 0 0 64 49
cinza/n02403454098894532_339.bmp 1 0 0 64 47
cinza/n02403454123412_4488.bmp 1 0 0 44 64
cinza/n0240345412a132fa132fa13fa_8790.bmp 1 0 0 64 56
cinza/n0240345414983792652_339.bmp 1 0 0 64 60
cinza/n02403454151321515324gdgdg_17689.bmp 1 0 0 40 64
cinza/n0240345415487941_16410.bmp 1 0 0 41 64
cinza/n024034541654151651_903.bmp 1 0 0 64 38
cinza/n02403454178788453_903.bmp 1 0 0 64 32
cinza/n02403454515614.561.56161_5945.bmp 1 0 0 64 33
cinza/n024034546545879871_903.bmp 1 0 0 55 64
cinza/n024034547459857489_15877.bmp 1 0 0 64 57
cinza/n0240345487_4188.bmp 1 0 0 41 64
cinza/n024034549890890898_434.bmp 1 0 0 64 41
cinza/n02403454afeafaef_7206.bmp 1 0 0 62 64
cinza/n02403454BWSRAFJO_2701.bmp 1 0 0 43 64
cinza/n02403454jkjpiojiojioujiojiopui_434.bmp 1 0 0 64 42
cinza/n02403454okokkkpo16161616_14600.bmp 1 0 0 51 64
cinza/n02403454opkkokk_15877.bmp 1 0 0 41 64
cinza/n02403454opppkpk_7360.bmp 1 0 0 64 54
cinza/n02403454poklkffafafa_12589.bmp 1 0 0 64 34
cinza/n02403454poklkoklk_6652.bmp 1 0 0 64 40
cinza/n02403454powqunbrvfi_6779.bmp 1 0 0 32 64
cinza/n02403454tysaerfaeaa_4488.bmp 1 0 0 64 58
cinza/n02403454vavvqefaa_7781.bmp 1 0 0 40 64
cinza/n02403454_1030.bmp 1 0 0 50 64
cinza/n02403454_1176.bmp 1 0 0 64 41
cinza/n02403454_11772.bmp 1 0 0 64 50
cinza/n02403454_11850.bmp 1 0 0 64 39
cinza/n02403454_12006.bmp 1 0 0 64 44
cinza/n02403454_12310.bmp 1 0 0 64 50
cinza/n02403454_12589.bmp 1 0 0 64 35
cinza/n02403454_12593.bmp 1 0 0 64 51
cinza/n02403454_1266.bmp 1 0 0 64 39
cinza/n02403454_12981.bmp 1 0 0 64 39
cinza/n02403454_12982.bmp 1 0 0 64 54
cinza/n02403454_13144.bmp 1 0 0 64 53
cinza/n02403454_13192.bmp 1 0 0 64 43
cinza/n02403454_13418.bmp 1 0 0 44 64
cinza/n02403454_13800.bmp 1 0 0 44 64
cinza/n02403454_13911.bmp 1 0 0 64 51
cinza/n02403454_1425.bmp 1 0 0 40 64
cinza/n02403454_14484.bmp 1 0 0 64 54
cinza/n02403454_14524.bmp 1 0 0 64 38
cinza/n02403454_14600.bmp 1 0 0 30 64
cinza/n02403454_1480.bmp 1 0 0 43 64
cinza/n02403454_15737.bmp 1 0 0 63 64
cinza/n02403454_15877.bmp 1 0 0 64 41
cinza/n02403454_1593.bmp 1 0 0 64 42
cinza/n02403454_16083.bmp 1 0 0 44 64
cinza/n02403454_1610.bmp 1 0 0 50 64
cinza/n02403454_16118.bmp 1 0 0 64 51
cinza/n02403454_16124.bmp 1 0 0 29 64
cinza/n02403454_16137.bmp 1 0 0 64 37
cinza/n02403454_16147.bmp 1 0 0 64 47
cinza/n02403454_16205.bmp 1 0 0 64 34
cinza/n02403454_16240.bmp 1 0 0 64 49
cinza/n02403454_16410.bmp 1 0 0 44 64
cinza/n02403454_16521.bmp 1 0 0 54 64
cinza/n02403454_16536.bmp 1 0 0 64 40
cinza/n02403454_16990.bmp 1 0 0 64 49
cinza/n02403454_17083.bmp 1 0 0 64 42
cinza/n02403454_17156.bmp 1 0 0 49 64
cinza/n02403454_1768.bmp 1 0 0 64 44
cinza/n02403454_17681.bmp 1 0 0 64 48
cinza/n02403454_17689.bmp 1 0 0 42 64
cinza/n02403454_2132.bmp 1 0 0 64 49
cinza/n02403454_2159.bmp 1 0 0 47 64
cinza/n02403454_2424.bmp 1 0 0 64 43
cinza/n02403454_25140.bmp 1 0 0 64 51
cinza/n02403454_2601.bmp 1 0 0 57 64
cinza/n02403454_2701.bmp 1 0 0 61 64
cinza/n02403454_2816.bmp 1 0 0 54 64
cinza/n02403454_3035.bmp 1 0 0 64 42
cinza/n02403454_3113.bmp 1 0 0 33 64
cinza/n02403454_3135.bmp 1 0 0 54 64
cinza/n02403454_339.bmp 1 0 0 64 41
cinza/n02403454_3511.bmp 1 0 0 45 64
cinza/n02403454_364.bmp 1 0 0 42 64
cinza/n02403454_3784.bmp 1 0 0 36 64
cinza/n02403454_3861.bmp 1 0 0 64 42
cinza/n02403454_416.bmp 1 0 0 56 64
cinza/n02403454_4188.bmp 1 0 0 46 64
cinza/n02403454_434.bmp 1 0 0 64 56
cinza/n02403454_4396.bmp 1 0 0 64 56
cinza/n02403454_4488.bmp 1 0 0 62 64
cinza/n02403454_4676.bmp 1 0 0 64 41
cinza/n02403454_4889.bmp 1 0 0 35 64
cinza/n02403454_4994.bmp 1 0 0 64 54
cinza/n02403454_5100.bmp 1 0 0 64 58
cinza/n02403454_5236.bmp 1 0 0 64 54
cinza/n02403454_5261.bmp 1 0 0 64 50
cinza/n02403454_5378.bmp 1 0 0 40 64
cinza/n02403454_5945.bmp 1 0 0 64 49
cinza/n02403454_6372.bmp 1 0 0 64 44
cinza/n02403454_6400.bmp 1 0 0 44 64
cinza/n02403454_6652.bmp 1 0 0 64 44
cinza/n02403454_6779.bmp 1 0 0 53 64
cinza/n02403454_7206.bmp 1 0 0 63 64
cinza/n02403454_7360.bmp 1 0 0 38 64
cinza/n02403454_738.bmp 1 0 0 64 45
cinza/n02403454_7749.bmp 1 0 0 64 54
cinza/n02403454_7781.bmp 1 0 0 64 51
cinza/n02403454_7829.bmp 1 0 0 44 64
cinza/n02403454_7839.bmp 1 0 0 64 60
cinza/n02403454_7974.bmp 1 0 0 32 64
cinza/n02403454_8002.bmp 1 0 0 64 48
cinza/n02403454_807.bmp 1 0 0 64 46
cinza/n02403454_8119.bmp 1 0 0 64 50
cinza/n02403454_8171.bmp 1 0 0 51 64
cinza/n02403454_8680.bmp 1 0 0 64 48
cinza/n02403454_8790.bmp 1 0 0 64 59
cinza/n02403454_8839.bmp 1 0 0 64 46
cinza/n02403454_908.bmp 1 0 0 54 64
cinza/n02403454_9147.bmp 1 0 0 64 31
cinza/n02403454_9261.bmp 1 0 0 64 62
cinza/n02403454_9380.bmp 1 0 0 40 64
cinza/n02403454_9410.bmp 1 0 0 64 43
cinza/n02403454_9877.bmp 1 0 0 47 64
cinza/n02403454_9935.bmp 1 0 0 64 34
cinza/n02403454_9997.bmp 1 0 0 44 64
cinza/n024061745641141ssfs_31725.bmp 1 0 0 51 64
cinza/n02406174888144_30075.bmp 1 0 0 34 64
cinza/n02406174afafae344q51561_3720.bmp 1 0 0 61 64
cinza/n02406174cxcbccncncbcgcc_5850.bmp 1 0 0 48 64
cinza/n02406174_11652.bmp 1 0 0 39 64
cinza/n02406174_13224.bmp 1 0 0 64 49
cinza/n02406174_13728.bmp 1 0 0 64 59
cinza/n02406174_14127.bmp 1 0 0 60 64
cinza/n02406174_14559.bmp 1 0 0 64 31
cinza/n02406174_1480.bmp 1 0 0 42 64
cinza/n02406174_16970.bmp 1 0 0 64 50
cinza/n02406174_17235.bmp 1 0 0 64 50
cinza/n02406174_17485.bmp 1 0 0 64 54
cinza/n02406174_17777.bmp 1 0 0 59 64
cinza/n02406174_18634.bmp 1 0 0 64 57
cinza/n02406174_19233.bmp 1 0 0 60 64
cinza/n02406174_1969.bmp 1 0 0 64 57
cinza/n02406174_19699.bmp 1 0 0 64 44
cinza/n02406174_20029.bmp 1 0 0 64 47
cinza/n02406174_20040.bmp 1 0 0 50 64
cinza/n02406174_20635.bmp 1 0 0 64 49
cinza/n02406174_23674.bmp 1 0 0 64 34
cinza/n02406174_29196.bmp 1 0 0 28 64
cinza/n02406174_30075.bmp 1 0 0 33 64
cinza/n02406174_3053.bmp 1 0 0 64 49
cinza/n02406174_30970.bmp 1 0 0 64 42
cinza/n02406174_31725.bmp 1 0 0 64 54
cinza/n02406174_32499.bmp 1 0 0 64 48
cinza/n02406174_3527.bmp 1 0 0 32 64
cinza/n02406174_3720.bmp 1 0 0 32 64
cinza/n02406174_3753.bmp 1 0 0 64 53
cinza/n02406174_4082.bmp 1 0 0 64 58
cinza/n02406174_418.bmp 1 0 0 64 52
cinza/n02406174_4206.bmp 1 0 0 64 57
cinza/n02406174_4708.bmp 1 0 0 64 39
cinza/n02406174_5040.bmp 1 0 0 64 40
cinza/n02406174_5850.bmp 1 0 0 33 64
cinza/n02406174_5908.bmp 1 0 0 64 44
cinza/n02406174_9149.bmp 1 0 0 64 42
cinza/n0312380956486486plplpl_17024.bmp 1 0 0 64 56
cinza/n03123809_10979.bmp 1 0 0 64 57
cinza/n03123809_10980.bmp 1 0 0 47 64
cinza/n03123809_11020.bmp 1 0 0 38 64
cinza/n03123809_12988.bmp 1 0 0 50 64
cinza/n03123809_14621.bmp 1 0 0 44 64
cinza/n03123809_16401.bmp 1 0 0 64 40
cinza/n03123809_17024.bmp 1 0 0 36 64
cinza/n03123809_18766.bmp 1 0 0 64 31
cinza/n03123809_18947.bmp 1 0 0 61 64
cinza/n03123809_19701.bmp 1 0 0 64 41
cinza/n03123809_22955.bmp 1 0 0 64 47
cinza/n03123809_5139.bmp 1 0 0 64 52
cinza/n03123809_5380.bmp 1 0 0 64 44
cinza/n03123809_72.bmp 1 0 0 64 46
cinza/n07801091_17444.bmp 1 0 0 64 26
cinza/n07801091_25194.bmp 1 0 0 64 55
cinza/n07801091_29737.bmp 1 0 0 64 60
cinza/n07801091_38176.bmp 1 0 0 36 64
cinza/n07801091_38695.bmp 1 0 0 64 45
cinza/n07801091_38932.bmp 1 0 0 34 64
cinza/n07801091_49583.bmp 1 0 0 56 64
cinza/n07801091_50211.bmp 1 0 0 64 55
cinza/n07801091_65512.bmp 1 0 0 64 54
cinza/n07801091_66685.bmp 1 0 0 64 47
cinza/n08547468090390941941_32.bmp 1 0 0 64 64
cinza/n085474681212121h2f121f21fhfhfh_4175.bmp 1 0 0 56 64
cinza/n0854746815645615615_406.bmp 1 0 0 64 29
cinza/n0854746821321325021231_398.bmp 1 0 0 64 49
cinza/n085474682585825285_3294.bmp 1 0 0 36 64
cinza/n085474683336666_469.bmp 1 0 0 40 64
cinza/n0854746845434543543435_2036.bmp 1 0 0 64 41
cinza/n0854746845645665454_193.bmp 1 0 0 32 64
cinza/n08547468456456a4564f5a45a45f4afa_3640.bmp 1 0 0 64 63
cinza/n085474684894894gkgkgukgukgkgkg_4824.bmp 1 0 0 64 49
cinza/n08547468545645sgsgsg_5309.bmp 1 0 0 40 64
cinza/n085474685465415g456k4gkgkgk_5175.bmp 1 0 0 35 64
cinza/n08547468556456456456564_727.bmp 1 0 0 50 64
cinza/n08547468564564845456456_4824.bmp 1 0 0 54 64
cinza/n08547468599995_468.bmp 1 0 0 46 64
cinza/n08547468898789uyioypoiyphlhl_4781.bmp 1 0 0 35 64
cinza/n085474689484894gkgkgk_4699.bmp 1 0 0 47 64
cinza/n08547468985895985_2714.bmp 1 0 0 64 40
cinza/n08547468989898989898545415151_1613.bmp 1 0 0 64 37
cinza/n08547468a789f7a897f8a7fa_3762.bmp 1 0 0 45 64
cinza/n08547468afoiaoifpoaifoaifa32_1969.bmp 1 0 0 64 55
cinza/n08547468akfaklfkalkfaf_1435.bmp 1 0 0 64 37
cinza/n08547468aplaplfplalfaaearqaq_4886.bmp 1 0 0 64 50
cinza/n08547468ioiuiuikjjkjkjk_3571.bmp 1 0 0 45 64
cinza/n08547468kopkaokfkfoak_945.bmp 1 0 0 40 64
cinza/n08547468ksjkjfijaflkjfaaaa_194.bmp 1 0 0 64 41
cinza/n08547468llllllllll_3362.bmp 1 0 0 39 64
cinza/n08547468oioiqoklakfafa_1877.bmp 1 0 0 47 64
cinza/n08547468oipoipoipoi_1350.bmp 1 0 0 48 64
cinza/n08547468okokopkokokoko_1118.bmp 1 0 0 62 64
cinza/n08547468opopopopopopopo_3362.bmp 1 0 0 40 64
cinza/n08547468pokpoakpokapofkoakfa_2027.bmp 1 0 0 64 39
cinza/n08547468qlklqklrkqlrkqlkrqk_3762.bmp 1 0 0 61 64
cinza/n08547468qweoqpoeqpoepqoe_3857.bmp 1 0 0 64 43
cinza/n08547468s4g56s4g56s5g4s5_3762.bmp 1 0 0 56 64
cinza/n08547468x13v1x21v2x12vx_3939.bmp 1 0 0 49 64
cinza/n08547468xxxxx_1874.bmp 1 0 0 64 50
cinza/n08547468yyyyyyyyyyyyy_1874.bmp 1 0 0 64 43
cinza/n08547468_1010.bmp 1 0 0 64 44
cinza/n08547468_1054.bmp 1 0 0 64 44
cinza/n08547468_1087.bmp 1 0 0 64 33
cinza/n08547468_1113.bmp 1 0 0 43 64
cinza/n08547468_1118.bmp 1 0 0 64 54
cinza/n08547468_1202.bmp 1 0 0 64 61
cinza/n08547468_121.bmp 1 0 0 64 50
cinza/n08547468_1271.bmp 1 0 0 64 53
cinza/n08547468_1277.bmp 1 0 0 64 43
cinza/n08547468_1286.bmp 1 0 0 64 55
cinza/n08547468_1336.bmp 1 0 0 55 64
cinza/n08547468_135.bmp 1 0 0 64 57
cinza/n08547468_1350.bmp 1 0 0 64 60
cinza/n08547468_1366.bmp 1 0 0 64 59
cinza/n08547468_1403.bmp 1 0 0 64 42
cinza/n08547468_1435.bmp 1 0 0 64 43
cinza/n08547468_1441.bmp 1 0 0 64 45
cinza/n08547468_1613.bmp 1 0 0 64 37
cinza/n08547468_1800.bmp 1 0 0 64 41
cinza/n08547468_1803.bmp 1 0 0 64 52
cinza/n08547468_1816.bmp 1 0 0 64 43
cinza/n08547468_1823.bmp 1 0 0 64 48
cinza/n08547468_1830.bmp 1 0 0 64 44
cinza/n08547468_1848.bmp 1 0 0 38 64
cinza/n08547468_1874.bmp 1 0 0 64 55
cinza/n08547468_1876.bmp 1 0 0 39 64
cinza/n08547468_1877.bmp 1 0 0 64 42
cinza/n08547468_1904.bmp 1 0 0 54 64
cinza/n08547468_193.bmp 1 0 0 36 64
cinza/n08547468_194.bmp 1 0 0 64 45
cinza/n08547468_1966.bmp 1 0 0 64 43
cinza/n08547468_1969.bmp 1 0 0 64 58
cinza/n08547468_197.bmp 1 0 0 39 64
cinza/n08547468_1996.bmp 1 0 0 64 52
cinza/n08547468_1999.bmp 1 0 0 64 48
cinza/n08547468_2009.bmp 1 0 0 40 64
cinza/n08547468_2027.bmp 1 0 0 64 49
cinza/n08547468_2059.bmp 1 0 0 64 56
cinza/n08547468_2077.bmp 1 0 0 64 36
cinza/n08547468_2081.bmp 1 0 0 64 50
cinza/n08547468_2084.bmp 1 0 0 64 50
cinza/n08547468_2134.bmp 1 0 0 34 64
cinza/n08547468_2136.bmp 1 0 0 64 51
cinza/n08547468_2152.bmp 1 0 0 64 52
cinza/n08547468_2161.bmp 1 0 0 64 55
cinza/n08547468_2165.bmp 1 0 0 64 38
cinza/n08547468_2267.bmp 1 0 0 57 64
cinza/n08547468_2270.bmp 1 0 0 38 64
cinza/n08547468_2301.bmp 1 0 0 64 40
cinza/n08547468_253.bmp 1 0 0 64 50
cinza/n08547468_2691.bmp 1 0 0 64 48
cinza/n08547468_2714.bmp 1 0 0 64 41
cinza/n08547468_2766.bmp 1 0 0 64 56
cinza/n08547468_2789.bmp 1 0 0 64 51
cinza/n08547468_2828.bmp 1 0 0 43 64
cinza/n08547468_2848.bmp 1 0 0 51 64
cinza/n08547468_2989.bmp 1 0 0 54 64
cinza/n08547468_3071.bmp 1 0 0 64 44
cinza/n08547468_3111.bmp 1 0 0 64 62
cinza/n08547468_3116.bmp 1 0 0 64 54
cinza/n08547468_3124.bmp 1 0 0 47 64
cinza/n08547468_3134.bmp 1 0 0 64 48
cinza/n08547468_3140.bmp 1 0 0 64 38
cinza/n08547468_3141.bmp 1 0 0 64 48
cinza/n08547468_3150.bmp 1 0 0 64 42
cinza/n08547468_3167.bmp 1 0 0 56 64
cinza/n08547468_32.bmp 1 0 0 53 64
cinza/n08547468_328.bmp 1 0 0 64 43
cinza/n08547468_3294.bmp 1 0 0 61 64
cinza/n08547468_3352.bmp 1 0 0 64 45
cinza/n08547468_3356.bmp 1 0 0 38 64
cinza/n08547468_3362.bmp 1 0 0 58 64
cinza/n08547468_3452.bmp 1 0 0 64 55
cinza/n08547468_3571.bmp 1 0 0 35 64
cinza/n08547468_3610.bmp 1 0 0 64 41
cinza/n08547468_3622.bmp 1 0 0 64 63
cinza/n08547468_3640.bmp 1 0 0 37 64
cinza/n08547468_3707.bmp 1 0 0 58 64
cinza/n08547468_3721.bmp 1 0 0 64 45
cinza/n08547468_3724.bmp 1 0 0 64 39
cinza/n08547468_3734.bmp 1 0 0 33 64
cinza/n08547468_3762.bmp 1 0 0 56 64
cinza/n08547468_3774.bmp 1 0 0 64 42
cinza/n08547468_3853.bmp 1 0 0 57 64
cinza/n08547468_3857.bmp 1 0 0 64 39
cinza/n08547468_3904.bmp 1 0 0 31 64
cinza/n08547468_3939.bmp 1 0 0 62 64
cinza/n08547468_3947.bmp 1 0 0 64 41
cinza/n08547468_398.bmp 1 0 0 64 42
cinza/n08547468_3983.bmp 1 0 0 56 64
cinza/n08547468_402.bmp 1 0 0 64 47
cinza/n08547468_406.bmp 1 0 0 64 44
cinza/n08547468_407.bmp 1 0 0 35 64
cinza/n08547468_4100.bmp 1 0 0 64 54
cinza/n08547468_4106.bmp 1 0 0 61 64
cinza/n08547468_4119.bmp 1 0 0 64 47
cinza/n08547468_4175.bmp 1 0 0 36 64
cinza/n08547468_425.bmp 1 0 0 64 54
cinza/n08547468_446.bmp 1 0 0 64 63
cinza/n08547468_4643.bmp 1 0 0 64 49
cinza/n08547468_468.bmp 1 0 0 39 64
cinza/n08547468_469.bmp 1 0 0 64 50
cinza/n08547468_4691.bmp 1 0 0 64 41
cinza/n08547468_4699.bmp 1 0 0 52 64
cinza/n08547468_4781.bmp 1 0 0 27 64
cinza/n08547468_4815.bmp 1 0 0 64 44
cinza/n08547468_4824.bmp 1 0 0 64 48
cinza/n08547468_4853.bmp 1 0 0 30 64
cinza/n08547468_4854.bmp 1 0 0 53 64
cinza/n08547468_4855.bmp 1 0 0 64 39
cinza/n08547468_4858.bmp 1 0 0 64 44
cinza/n08547468_4861.bmp 1 0 0 64 51
cinza/n08547468_4884.bmp 1 0 0 56 64
cinza/n08547468_4886.bmp 1 0 0 64 34
cinza/n08547468_4897.bmp 1 0 0 64 49
cinza/n08547468_4912.bmp 1 0 0 64 60
cinza/n08547468_4924.bmp 1 0 0 64 38
cinza/n08547468_493.bmp 1 0 0 64 54
cinza/n08547468_4950.bmp 1 0 0 64 50
cinza/n08547468_5009.bmp 1 0 0 64 37
cinza/n08547468_513.bmp 1 0 0 47 64
cinza/n08547468_5175.bmp 1 0 0 64 61
cinza/n08547468_519.bmp 1 0 0 48 64
cinza/n08547468_5309.bmp 1 0 0 64 42
cinza/n08547468_5363.bmp 1 0 0 58 64
cinza/n08547468_564.bmp 1 0 0 64 41
cinza/n08547468_590.bmp 1 0 0 27 64
cinza/n08547468_632.bmp 1 0 0 64 41
cinza/n08547468_651.bmp 1 0 0 64 42
cinza/n08547468_671.bmp 1 0 0 58 64
cinza/n08547468_703.bmp 1 0 0 64 55
cinza/n08547468_721.bmp 1 0 0 31 64
cinza/n08547468_727.bmp 1 0 0 41 64
cinza/n08547468_734.bmp 1 0 0 59 64
cinza/n08547468_763.bmp 1 0 0 64 41
cinza/n08547468_774.bmp 1 0 0 53 64
cinza/n08547468_795.bmp 1 0 0 64 38
cinza/n08547468_797.bmp 1 0 0 54 64
cinza/n08547468_806.bmp 1 0 0 64 56
cinza/n08547468_816.bmp 1 0 0 64 64
cinza/n08547468_872.bmp 1 0 0 64 58
cinza/n08547468_9.bmp 1 0 0 47 64
cinza/n08547468_925.bmp 1 0 0 64 41
cinza/n08547468_945.bmp 1 0 0 64 42
cinza/n08547468_967.bmp 1 0 0 58 64
cinza/n08547468_971.bmp 1 0 0 47 64
cinza/n08616050156156151srgsgs_60846.bmp 1 0 0 37 64
cinza/n0861605015645645454_47497.bmp 1 0 0 42 64
cinza/n0861605048484riritirriri_60146.bmp 1 0 0 54 64
cinza/n0861605054564654qtwtw_28471.bmp 1 0 0 51 64
cinza/n0861605055656565_25704.bmp 1 0 0 64 40
cinza/n08616050pofkapokfpoakfpokafaaa_61447.bmp 1 0 0 64 32
cinza/n08616050_11363.bmp 1 0 0 64 38
cinza/n08616050_1207.bmp 1 0 0 40 64
cinza/n08616050_1267.bmp 1 0 0 41 64
cinza/n08616050_13316.bmp 1 0 0 48 64
cinza/n08616050_13404.bmp 1 0 0 64 43
cinza/n08616050_15005.bmp 1 0 0 64 37
cinza/n08616050_1902.bmp 1 0 0 64 49
cinza/n08616050_19604.bmp 1 0 0 64 40
cinza/n08616050_21329.bmp 1 0 0 64 50
cinza/n08616050_21440.bmp 1 0 0 64 39
cinza/n08616050_21501.bmp 1 0 0 64 54
cinza/n08616050_25641.bmp 1 0 0 64 46
cinza/n08616050_25666.bmp 1 0 0 64 39
cinza/n08616050_25704.bmp 1 0 0 64 39
cinza/n08616050_26496.bmp 1 0 0 64 40
cinza/n08616050_27136.bmp 1 0 0 52 64
cinza/n08616050_28110.bmp 1 0 0 64 43
cinza/n08616050_28471.bmp 1 0 0 45 64
cinza/n08616050_28477.bmp 1 0 0 64 32
cinza/n08616050_2986.bmp 1 0 0 62 64
cinza/n08616050_29998.bmp 1 0 0 64 51
cinza/n08616050_30220.bmp 1 0 0 64 53
cinza/n08616050_32702.bmp 1 0 0 32 64
cinza/n08616050_32927.bmp 1 0 0 64 51
cinza/n08616050_33097.bmp 1 0 0 64 39
cinza/n08616050_33594.bmp 1 0 0 64 36
cinza/n08616050_34348.bmp 1 0 0 64 50
cinza/n08616050_3490.bmp 1 0 0 64 44
cinza/n08616050_35966.bmp 1 0 0 64 40
cinza/n08616050_36241.bmp 1 0 0 64 61
cinza/n08616050_36932.bmp 1 0 0 64 32
cinza/n08616050_39580.bmp 1 0 0 64 33
cinza/n08616050_41393.bmp 1 0 0 64 57
cinza/n08616050_42957.bmp 1 0 0 56 64
cinza/n08616050_47022.bmp 1 0 0 64 42
cinza/n08616050_47497.bmp 1 0 0 64 44
cinza/n08616050_48469.bmp 1 0 0 64 35
cinza/n08616050_48591.bmp 1 0 0 64 35
cinza/n08616050_49010.bmp 1 0 0 31 64
cinza/n08616050_49259.bmp 1 0 0 64 27
cinza/n08616050_5577.bmp 1 0 0 64 58
cinza/n08616050_57177.bmp 1 0 0 64 54
cinza/n08616050_58738.bmp 1 0 0 64 34
cinza/n08616050_6005.bmp 1 0 0 64 39
cinza/n08616050_60146.bmp 1 0 0 34 64
cinza/n08616050_60846.bmp 1 0 0 64 50
cinza/n08616050_60911.bmp 1 0 0 64 46
cinza/n08616050_61160.bmp 1 0 0 53 64
cinza/n08616050_61447.bmp 1 0 0 64 37
cinza/n08616050_61769.bmp 1 0 0 38 64
cinza/n08616050_9439.bmp 1 0 0 64 46
cinza/n08616050_9484.bmp 1 0 0 45 64
cinza/n12102133_27231.bmp 1 0 0 55 64
cinza/nature-1283736_960_720.bmp 1 0 0 64 42
cinza/nature-191518_960_720.bmp 1 0 0 36 64
cinza/nature-2525532_960_720.bmp 1 0 0 64 58
cinza/scot-1888963_960_720.bmp 1 0 0 64 43
cinza/weidekuh-2448789_960_720.bmp 1 0 0 64 31
cinza/weidekuh-2448791_960_720.bmp 1 0 0 63 64
